[
	{
		"path": "./img/img01.jpg",
		"name": "name01",
		"caption": "コメント１"
	}
	,{
		"path": "./img/img02.jpg",
		"name": "name02",
		"caption": "コメント2"
	}
	,{
		"path": "./img/img03.jpg",
		"name": "name03",
		"caption": "コメント3"
	}
]